<svg width="24" height="24" viewBox="0 0 24 24" fill="none" xmlns="http://www.w3.org/2000/svg">
<g clip-path="url(#clip0)">
<path d="M23 0H1C0.447715 0 0 0.447715 0 1V23C0 23.5523 0.447715 24 1 24H23C23.5523 24 24 23.5523 24 23V1C24 0.447715 23.5523 0 23 0Z" fill="none"/>
<path d="M20 0H8.99999C8.38173 0.00256297 7.77936 0.196084 7.27529 0.554088C6.77122 0.912091 6.39007 1.41709 6.18399 2H18C18.5304 2 19.0391 2.21071 19.4142 2.58579C19.7893 2.96086 20 3.46957 20 4V18.515L22 19.943V2C22 1.46957 21.7893 0.960859 21.4142 0.585786C21.0391 0.210714 20.5304 0 20 0V0Z" fill="#3C317D"/>
<path d="M16 4H4C3.46957 4 2.96086 4.21071 2.58579 4.58579C2.21071 4.96086 2 5.46957 2 6V23.943L10 18.229L18 23.943V6C18 5.46957 17.7893 4.96086 17.4142 4.58579C17.0391 4.21071 16.5304 4 16 4Z" fill="#998ACD"/>
</g>
<defs>
<clipPath id="clip0">
<rect width="24" height="24" fill="none"/>
</clipPath>
</defs>
</svg>
