<svg xmlns="http://www.w3.org/2000/svg" width="24" height="24" viewBox="0 0 24 24">
    <path fill="#4D4D4D" fill-rule="evenodd" d="M16.01 12.06a1.6 1.6 0 0 1-1.595-1.596 1.6 1.6 0 0 1 1.595-1.596c.878 0 1.596.719 1.596 1.596a1.6 1.6 0 0 1-1.596 1.596m-3.99 0a1.6 1.6 0 0 1-1.596-1.596c0-.877.718-1.596 1.596-1.596.878 0 1.597.719 1.597 1.596 0 .878-.72 1.596-1.597 1.596m-3.99 0a1.602 1.602 0 0 1-1.597-1.596c0-.877.72-1.596 1.597-1.596.879 0 1.596.719 1.596 1.596A1.6 1.6 0 0 1 8.03 12.06M18.563 4H5.596A1.6 1.6 0 0 0 4 5.596v9.776a1.6 1.6 0 0 0 1.596 1.596h4.948l2.554 2.654a.98.98 0 0 0 .777.378c.34 0 .66-.18.84-.458a.772.772 0 0 0 .099-.22l.658-2.354h3.091c.879 0 1.597-.718 1.597-1.596V5.596c0-.878-.718-1.596-1.597-1.596"/>
</svg>
