
<svg width="13" height="16" viewBox="0 0 13 16" fill="none" xmlns="http://www.w3.org/2000/svg">
<path fill-rule="evenodd" clip-rule="evenodd" d="M0.732233 0.732233C1.20107 0.263392 1.83696 0 2.5 0H10.5C11.163 0 11.7989 0.263392 12.2678 0.732233C12.7366 1.20107 13 1.83696 13 2.5V15.5C13 15.6733 12.9103 15.8342 12.7629 15.9253C12.6155 16.0164 12.4314 16.0247 12.2764 15.9472L6.5 13.059L0.723607 15.9472C0.568613 16.0247 0.384543 16.0164 0.237134 15.9253C0.0897262 15.8342 0 15.6733 0 15.5V2.5C0 1.83696 0.263392 1.20107 0.732233 0.732233ZM2.5 1C2.10218 1 1.72064 1.15804 1.43934 1.43934C1.15804 1.72064 1 2.10218 1 2.5V14.691L6.27639 12.0528C6.41716 11.9824 6.58284 11.9824 6.72361 12.0528L12 14.691V2.5C12 2.10218 11.842 1.72064 11.5607 1.43934C11.2794 1.15804 10.8978 1 10.5 1H2.5Z" fill="#1A1A1A"/>
</svg>
