<svg width="20" height="18" viewBox="0 0 20 18" fill="none" xmlns="http://www.w3.org/2000/svg">
<path d="M9.99998 14.0001C12.3012 14.0001 14.1666 12.1346 14.1666 9.83341C14.1666 7.53223 12.3012 5.66675 9.99998 5.66675C7.69879 5.66675 5.83331 7.53223 5.83331 9.83341C5.83331 12.1346 7.69879 14.0001 9.99998 14.0001Z" stroke="#4D4D4D" stroke-miterlimit="10" stroke-linecap="round" stroke-linejoin="round"/>
<path d="M17.5 17.3334H2.49998C2.05795 17.3334 1.63403 17.1578 1.32147 16.8453C1.00891 16.5327 0.833313 16.1088 0.833313 15.6667V4.83341C0.833313 4.39139 1.00891 3.96746 1.32147 3.6549C1.63403 3.34234 2.05795 3.16675 2.49998 3.16675H5.83331L7.49998 0.666748H12.5L14.1666 3.16675H17.5C17.942 3.16675 18.3659 3.34234 18.6785 3.6549C18.991 3.96746 19.1666 4.39139 19.1666 4.83341V15.6667C19.1666 16.1088 18.991 16.5327 18.6785 16.8453C18.3659 17.1578 17.942 17.3334 17.5 17.3334Z" stroke="#4D4D4D" stroke-miterlimit="10" stroke-linecap="round" stroke-linejoin="round"/>
<path d="M3.33333 6.49992C3.79357 6.49992 4.16667 6.12682 4.16667 5.66659C4.16667 5.20635 3.79357 4.83325 3.33333 4.83325C2.8731 4.83325 2.5 5.20635 2.5 5.66659C2.5 6.12682 2.8731 6.49992 3.33333 6.49992Z" fill="#4D4D4D"/>
</svg>
