<svg width="20" height="17" viewBox="0 0 20 17" fill="none" xmlns="http://www.w3.org/2000/svg">
<path d="M18.3333 8.16667L11.6667 1.5V5.66667C7.00001 5.66667 0.833344 7.5 0.833344 15.6667C3.08334 11.8333 5.41668 10.6667 11.6667 10.6667V14.8333L18.3333 8.16667Z" stroke="#4D4D4D" stroke-width="1.5" stroke-miterlimit="10" stroke-linecap="round" stroke-linejoin="round"/>
</svg>
